{
  "name": "Manejo de aplicaciones por medios digitales",
  "image": "portada.jpg",
  "temas": [
    {
      "tema": "Introducción",
      "subtemas": [
        {
          "tema": "Legal",
          "url": "legal.html"
        },
        {
          "tema": "Presentación",
          "url": "presentacion.html"
        },       
        {
          "tema": "Unidad de aprendizaje 1",
          "url": "index.html"
        },
        {
          "tema": "Transversalidad de los aprendizajes",
          "url": "aprendizajes.html"
        },
        {
          "tema": "Proyecto formativo",
          "url": "proyecto_formativo.html"
        },
        {
          "tema": "Explora tu mundo",
          "url": "explora_tu_mundo.html"
        },
        {
          "tema": "Evaluación diagnóstica",
          "url": "evaluacion_diagnostica.html"
        }
      ]
    },
    {
      "tema": "Diseña imágenes creativas de comunicación social por medio del editor de imágenes",
      "subtemas": [
        {
          "tema": "La identificación de componentes del editor de imágenes",
          "url": "tema1.0.0.html"
        },
        {
          "tema": "Actividad 1",
          "url": "tema1.0.0A1.html"
        },
        {
          "tema": "Teoría del color",
          "url": "tema1.1.0.html"
        },
        {
          "tema": "Actividad 2",
          "url": "tema1.1.0A2.html"
        },
        {
          "tema": "Imagen de mapa de Bits",
          "url": "tema1.2.0.html"
        },
        {
          "tema": "Actividad 3",
          "url": "tema1.2.0A3.html"
        },
        {
          "tema": "Imagen vectorial",
          "url": "tema1.3.0.html"
        },
        {
          "tema": "Actividad 4",
          "url": "tema1.3.0A4.html"
        },
        {
          "tema": "Actividad 5",
          "url": "tema1.3.0A5.html"
        },
        {
          "tema": "Actividad 6",
          "url": "tema1.3.0A6.html"
        },
        {
          "tema": "Ventana de herramientas",
          "url": "tema1.4.0.html"
        },
        {
          "tema": "Actividad 7",
          "url": "tema1.4.0A7.html"
        },
        {
          "tema": "Uso de herramientas del editor de imágenes",
          "url": "tema1.5.0.html"
        },
        {
          "tema": "Actividad 8",
          "url": "tema1.5.0A8.html"
        },
        {
          "tema": "Herramientas de selección",
          "url": "tema1.6.0.html"
        },
        {
          "tema": "Utilizando herramientas de transformación y manipulación de imágenes",
          "url": "tema1.7.0.html"
        },
        {
          "tema": "Actividad 9",
          "url": "tema1.7.0A9.html"
        },
        {
          "tema": "Herramientas de manejo de rutas",
          "url": "tema1.8.0.html"
        },
        {
          "tema": "Actividad 10",
          "url": "tema1.8.0A10.html"
        },
        {
          "tema": "Filtros",
          "url": "tema1.9.0.html"
        },
        {
          "tema": "Actividad 11",
          "url": "tema1.9.0A11.html"
        },
        {
          "tema": "Evaluación formativa",
          "url": "tema1.9.0A11_evaluacion_formativa.html"
        },
        {
          "tema": "Proyecto formativo",
          "url": "tema1.9.0A11_proyecto_formativo.html"
        },
        {
          "tema": "Actividad DHS",
          "url": "tema1.9.1_dhs.html"
        }
      ]
    },
    {
      "tema": "Sistematiza y difunde información de hechos en obras escritas mediante el diagramador de páginas",
      "subtemas": [
        {
          "tema": "Conociendo el diagramador de páginas",
          "url": "tema2.0.0.html"
        },
        {
          "tema": "Actividad 12",
          "url": "tema2.0.0A12.html"
        },
        {
          "tema": "Navegar en ventana principal del diagramador",
          "url": "tema2.1.0.html"
        },
        {
          "tema": "La distribución en la plantilla",
          "url": "tema2.2.0.html"
        },
        {
          "tema": "Actividad 13",
          "url": "tema2.2.0A13.html"
        },
        {
          "tema": "Insertar elementos (gráficos)",
          "url": "tema2.3.0.html"
        },
        {
          "tema": "Actividad 14",
          "url": "tema2.3.0A14.html"
        },
        {
          "tema": "Evaluación formativa",
          "url": "tema2.3.0A14_evaluacion_formativa.html"
        },
        {
          "tema": "Actividad tramsversal",
          "url": "tema2.3.0A15_actividad_transversal.html"
        },
        {
          "tema": "Proyecto formativo",
          "url": "tema2.3.0A15_proyecto_formativo.html"
        },
        {
          "tema": "Actividad DHS",
          "url": "tema2.3.1_dhs.html"
        },
        {
          "tema": "Fomento a la lectura",
          "url": "tema2.3.1_lectura.html"
        },
        {
          "tema": "Oriéntate",
          "url": "tema2.3.1_orientate.html"
        },
        {
          "tema": "Vinculación de competencias y resultados de aprendizaje",
          "url": "tema2.3.1_vinculacion_de_competencias.html"
        },
        {
          "tema": "Evaluación sumativa",
          "url": "tema2.3.2_sumativa.html"
        },
        {
          "tema": "Prueba tipo PLANEA",
          "url": "tema2.3.3_prueba_planea.html"
        }
      ]
    }
  ]
}